vcdfiles/UART_receiver_controller_tb_dump.vcd
$date
	Sat May 17 10:24:05 2025
$end
$version
	Icarus Verilog
$end
$timescale
	1ps
$end
$scope module UART_receiver_controller_tb $end
$var wire 1 ! write_enable_tb $end
$var wire 8 " write_data_tb [7:0] $end
$var wire 1 # read_enable_tb $end
$var wire 4 $ address_tb [3:0] $end
$var wire 4 % ALU_function_tb [3:0] $end
$var wire 1 & ALU_enable_tb $end
$var wire 1 ' ALU_clk_enable_tb $end
$var reg 1 ( enable_tb $end
$var reg 8 ) parallel_data_synchronized_tb [7:0] $end
$var reg 1 * parallel_data_valid_synchronized_tb $end
$var reg 1 + reference_clk_tb $end
$var reg 1 , reset_tb $end
$var integer 32 - file [31:0] $end
$var integer 32 . passed_test_cases [31:0] $end
$var integer 32 / total_test_cases [31:0] $end
$scope module U_UART_receiver_controller $end
$var wire 1 + clk $end
$var wire 1 ( enable $end
$var wire 8 0 parallel_data_synchronized [7:0] $end
$var wire 1 * parallel_data_valid_synchronized $end
$var wire 1 , reset $end
$var reg 1 ' ALU_clk_enable $end
$var reg 1 & ALU_enable $end
$var reg 4 1 ALU_function [3:0] $end
$var reg 4 2 Q_write_address_register [3:0] $end
$var reg 4 3 address [3:0] $end
$var reg 2 4 counter [1:0] $end
$var reg 3 5 current_state [2:0] $end
$var reg 1 6 enable_write_address_register $end
$var reg 3 7 next_state [2:0] $end
$var reg 1 # read_enable $end
$var reg 8 8 write_data [7:0] $end
$var reg 1 ! write_enable $end
$upscope $end
$scope task initialize $end
$upscope $end
$scope task reset $end
$upscope $end
$upscope $end
$enddefinitions $end
#50000
$dumpvars
b0 8
b0 7
06
b0 5
b0 4
b0 3
b0 2
b0 1
b0 0
b0 /
b0 .
b10000000000000000000000000000011 -
1,
0+
0*
b0 )
1(
0'
0&
b0 %
b0 $
0#
b0 "
0!
$end
#62500
b1 7
1*
b10101010 )
b10101010 0
1+
#75000
0+
#87500
b1 5
b1 4
0*
1+
#100000
0+
#112500
b0 4
1+
#125000
0+
#137500
1+
#150000
0+
#162500
1+
#175000
0+
#187500
1+
#200000
0+
#212500
1+
#225000
0+
#237500
1+
#250000
0+
#262500
1+
#275000
0+
#287500
1+
#300000
0+
#312500
1+
#325000
0+
#337500
1+
#350000
0+
#362500
1+
#375000
0+
#387500
1+
#400000
0+
#412500
1+
#425000
0+
#437500
1+
#450000
0+
#462500
1+
#475000
0+
#487500
1+
#500000
0+
#512500
1+
#525000
0+
#537500
1+
#550000
0+
#562500
1+
#575000
0+
#587500
1+
#600000
0+
#612500
1+
#625000
0+
#637500
1+
#650000
0+
#662500
1+
#675000
0+
#687500
1+
#700000
0+
#712500
1+
#725000
0+
#737500
1+
#750000
0+
#762500
1+
#775000
0+
#787500
1+
#800000
0+
#812500
1+
#825000
0+
#837500
1+
#850000
0+
#862500
1+
#875000
0+
#887500
1+
#900000
0+
#912500
1+
#925000
0+
#937500
1+
#950000
0+
#962500
1+
#975000
0+
#987500
1+
#1000000
0+
#1012500
1+
#1025000
0+
#1037500
1+
#1050000
0+
#1062500
1+
#1075000
0+
#1087500
1+
#1100000
0+
#1112500
1+
#1125000
0+
#1137500
1+
#1150000
0+
#1162500
1+
#1175000
0+
#1187500
1+
#1200000
0+
#1212500
1+
#1225000
0+
#1237500
1+
#1250000
0+
#1262500
1+
#1275000
0+
#1287500
1+
#1300000
0+
#1312500
1+
#1325000
0+
#1337500
1+
#1350000
0+
#1362500
1+
#1375000
0+
#1387500
1+
#1400000
0+
#1412500
1+
#1425000
0+
#1437500
1+
#1450000
0+
#1462500
1+
#1475000
0+
#1487500
1+
#1500000
0+
#1512500
1+
#1525000
0+
#1537500
1+
#1550000
0+
#1562500
1+
#1575000
0+
#1587500
1+
#1600000
0+
#1612500
1+
#1625000
0+
#1637500
1+
#1650000
0+
#1662500
1+
#1675000
0+
#1687500
1+
#1700000
0+
#1712500
1+
#1725000
0+
#1737500
1+
#1750000
0+
#1762500
1+
#1775000
0+
#1787500
1+
#1800000
0+
#1812500
1+
#1825000
0+
#1837500
1+
#1850000
0+
#1862500
1+
#1875000
0+
#1887500
1+
#1900000
0+
#1912500
1+
#1925000
0+
#1937500
1+
#1950000
0+
#1962500
1+
#1975000
0+
#1987500
1+
#2000000
0+
#2012500
1+
#2025000
0+
#2037500
1+
#2050000
0+
#2062500
1+
#2075000
0+
#2087500
1+
#2100000
0+
#2112500
1+
#2125000
0+
#2137500
1+
#2150000
0+
#2162500
1+
#2175000
0+
#2187500
1+
#2200000
0+
#2212500
1+
#2225000
0+
#2237500
1+
#2250000
0+
#2262500
1+
#2275000
0+
#2287500
1+
#2300000
0+
#2312500
1+
#2325000
0+
#2337500
1+
#2350000
0+
#2362500
1+
#2375000
0+
#2387500
1+
#2400000
0+
#2412500
1+
#2425000
0+
#2437500
1+
#2450000
0+
#2462500
1+
#2475000
0+
#2487500
1+
#2500000
0+
#2512500
1+
#2525000
0+
#2537500
1+
#2550000
0+
#2562500
1+
#2575000
0+
#2587500
1+
#2600000
0+
#2612500
1+
#2625000
0+
#2637500
1+
#2650000
0+
#2662500
1+
#2675000
0+
#2687500
1+
#2700000
0+
#2712500
1+
#2725000
0+
#2737500
1+
#2750000
0+
#2762500
1+
#2775000
0+
#2787500
1+
#2800000
0+
#2812500
1+
#2825000
0+
#2837500
1+
#2850000
0+
#2862500
1+
#2875000
0+
#2887500
1+
#2900000
0+
#2912500
1+
#2925000
0+
#2937500
1+
#2950000
0+
#2962500
1+
#2975000
0+
#2987500
1+
#3000000
0+
#3012500
1+
#3025000
0+
#3037500
1+
#3050000
0+
#3062500
1+
#3075000
0+
#3087500
1+
#3100000
0+
#3112500
1+
#3125000
0+
#3137500
1+
#3150000
0+
#3162500
1+
#3175000
0+
#3187500
1+
#3200000
0+
#3212500
1+
#3225000
0+
#3237500
1+
#3250000
0+
#3262500
1+
#3275000
0+
#3287500
1+
#3300000
0+
#3312500
1+
#3325000
0+
#3337500
1+
#3339500
16
b10 7
1*
b1101 )
b1101 0
#3350000
0+
#3362500
06
b0 7
b1 4
b1101 2
b10 5
1+
#3364500
b10 7
0*
#3375000
0+
#3387500
b0 4
1+
